{
  "apiVersion": "1.3",
  "query": {
    "url": "https://example.com/par/tools?offset=0&limit=2",
    "parameters": []
  },
  "paging": {
    "totalResults": 10,
    "returnedResults": 2,
    "nextPage": "https://example.com/par/tools?offset=2&limit=2",
    "parameters": []
  },
  "tools": [
    {
      "id": {
        "guid": "b895a819-5396-5d88-bf7b-4b20f48d3729",
        "name": "tool/50",
        "namespace": "http://preservica.com"
      },
      "toolAcceptedParameters": [
        {
          "description": "Input file path",
          "type": "command line argument",
          "value": "-i INPUT"
        },
        {
          "description": "Audio codec to use",
          "type": "command line argument",
          "value": "-acodec CODEC_NAME"
        }
      ],
      "toolLabel": "FFmpeg",
      "toolName": "FFmpeg v3.1",
      "toolOperatingEnvironments": [
        "linux",
        "windows"
      ],
      "toolPublisher": "ffmpeg",
      "toolVersion": "3.1"
    },
    {
      "id": {
        "guid": "1d168550-a7ad-5599-9ed1-be93a5b9d5c5",
        "name": "opf-jhove",
        "namespace": "https://openpreservation.org"
      },
      "toolLabel": "JSTOR Harvard Object Validation Environment",
      "toolName": "JHOVE",
      "toolOperatingEnvironments": [
        "linux",
        "windows",
        "macos",
        "java 8 or greater"
      ],
      "toolPublisher": "Open Preservation Foundation",
      "toolVersion": "1.22.1"
    }
  ]
}